pubkey,pair_description,pair_ticker,operator,period
0x02d3c1de9d4bc77d6c3608cbe44d10138c7488e592dc2b1e10a6cf0e92c2ecb047,"US Dollar (USD / BCH)",BCHUSD,"General Protocols","60,000 milliseconds"
0x0330779426934d4fe5d18a3721e9eae246150501ebc537e866d2841369daeb0691,"Dogecoin (DOGE / BCH)",BCHDOGE,"General Protocols","60,000 milliseconds"
0x03518d199a4ca5dc06ecb1068416acde321df1b8d6f09149744b1e0fb38c92c92c,"Ethereum (ETH / BCH)",BCHETH,"General Protocols","60,000 milliseconds"
0x03994dc2c759375e98afbf5049383cd987001c346d0f11aa262c105874fb1390c3,"Indian Rupee (INR / BCH)",BCHINR,"General Protocols","60,000 milliseconds"
0x03c22127c967bb28ec518fcc225164100df40470a1f6b457cd3a85adb051dcaa56,"Bitcoin (BTC / BCH)",BCHBTC,"General Protocols","60,000 milliseconds"
0x03c5e3e6a2fe9ed9be3c71a11e7808cf8428bc9ca48808d05a6fa2526865964f06,"Chinese Yuan (CNY / BCH)",BCHCNY,"General Protocols","60,000 milliseconds"
0x03e9342b4d07dc35db0f555b80e19645b2a2a95a22675b50ead248d551a900fdec,"Silver (XAG / BCH)",BCHXAG,"General Protocols","60,000 milliseconds"
0x03e980928f14fc98e1f9d75d15f0b67dc58cdd3f5c641b8f825b146bcc04bd232c,"Gold (XAU / BCH)",BCHXAU,"General Protocols","60,000 milliseconds"
